{
  "schemaVersion": 1,
  "id": "elytra-recipe",
  "version": "${version}",
  "name": "Elytra Recipe",
  "description": "Adds a crafting recipe to the Elytra.",
  "authors": [
    "plomdawg"
  ],
  "contributors": [],
  "contact": {
    "homepage": "https://gitlab.com/avalonparton/craftable-elytra-for-fabric",
    "sources": "https://gitlab.com/avalonparton/craftable-elytra-for-fabric"
  },
  "license": "MIT",
  "icon": "assets/elytra-recipe/icon.png",
  "environment": "*",
  "entrypoints": {
    "main": [
      "com.plomdawg.elytra.ElytraRecipe"
    ],
    "client": [],
    "server": []
  },
  "mixins": [],
  "depends": {
    "fabricloader": ">=0.8.9",
    "fabric": "*"
  }
}